Week 13: Data Visualization
…
Note that I had to summarize the count by both `month` and `bearType`

.code70[

```r
bears %>%
  count(month, bearType)
```
]
.code60[

```
## # A tibble: 27 x 3
##    month bearType     n
##    <dbl> <chr>    <int>
##  1     1 Brown        1
##  2     1 Polar        2
##  3     2 Brown        1
##  4     3 Brown        1
##  5     4 Black        1
##  6     4 Brown        3
##  7     5 Black       15
##  8     5 Brown        2
##  9     5 Polar        1
## 10     6 Black       10
## # … with 17 more rows
```
…
