Final Exam Review
…
---

# Select columns with `select()`

.leftcol[

```r
birds %>%
    select(state, airport)
```

```
#> # A tibble: 56,978 x 2
#>    state airport                       
#>    <chr> <chr>                         
#>  1 FL    MIAMI INTL                    
#>  2 IN    INDIANAPOLIS INTL ARPT        
#>  3 N/A   UNKNOWN                       
#>  4 N/A   UNKNOWN                       
#>  5 N/A   UNKNOWN                       
#>  6 FL    MIAMI INTL                    
#>  7 FL    ORLANDO INTL                  
#>  8 N/A   UNKNOWN                       
#>  9 N/A   UNKNOWN                       
#> 10 FL    FORT LAUDERDALE/HOLLYWOOD INTL
#> # … with 56,968 more rows
```
]
--
.rightcol[
Search by column name:<br>`starts_with()`, `ends_with()`, `contains()`

```r
birds %>%
    select(starts_with('incident'))
```

```
#> # A tibble: 56,978 x 3
#>    incident_date       incident_month incident_year
#>    <dttm>                       <dbl>         <dbl>
#>  1 2018-12-31 00:00:00             12          2018
#>  2 2018-12-29 00:00:00             12          2018
#>  3 2018-12-29 00:00:00             12          2018
#>  4 2018-12-27 00:00:00             12          2018
#>  5 2018-12-27 00:00:00             12          2018
#>  6 2018-12-27 00:00:00             12          2018
#>  7 2018-12-27 00:00:00             12          2018
#>  8 2018-12-26 00:00:00             12          2018
#>  9 2018-12-23 00:00:00             12          2018
#> 10 2018-12-23 00:00:00             12          2018
#> # … with 56,968 more rows
```
…
# Sort rows with `arrange()`

What is the highest recorded incident?

--

```r
birds %>%
    select(height) %>%
*   arrange(desc(height))
```

```
#> # A tibble: 56,978 x 1
#>    height
#>     <dbl>
#>  1  25000
#>  2  25000
#>  3  24300
#>  4  23000
#>  5  22000
#>  6  21000
#>  7  20000
#>  8  20000
#>  9  20000
#> 10  20000
#> # … with 56,968 more rows
```
…
# Select rows with `filter()`

--
**Common task**: drop missing values

--
.leftcol[

```r
birds %>%
    select(height)
```

```
#> # A tibble: 56,978 x 1
#>    height
#>     <dbl>
#>  1    700
#>  2      0
#>  3     NA
#>  4     NA
#>  5     NA
#>  6     NA
#>  7    600
#>  8     NA
#>  9     NA
#> 10      0
#> # … with 56,968 more rows
```
]
--
.rightcol[

```r
birds %>%
*   filter(! is.na(height)) %>%
    select(height)
```

```
#> # A tibble: 38,940 x 1
#>    height
#>     <dbl>
#>  1    700
#>  2      0
#>  3    600
#>  4      0
#>  5      0
#>  6      0
#>  7    500
#>  8    100
#>  9      0
#> 10   1000
#> # … with 38,930 more rows
```
…
# Create new variables with `mutate()`

How many years ago did each attack occur?

--

```r
bears %>%
*   mutate(event_age = 2020 - year) %>%
    select(year, event_age)
```

```
#> # A tibble: 166 x 2
#>     year event_age
#>    <dbl>     <dbl>
#>  1  1901       119
#>  2  1901       119
#>  3  1901       119
#>  4  1906       114
#>  5  1908       112
#>  6  1916       104
#>  7  1922        98
#>  8  1929        91
#>  9  1929        91
#> 10  1929        91
#> # … with 156 more rows
```
…
What is the mean age of bear attack victims?

--
.leftcol[

```r
bears %>%
    filter(!is.na(age)) %>%
*   mutate(mean_age = mean(age)) %>%
    select(age, mean_age)
```

```
#> # A tibble: 164 x 2
#>      age mean_age
#>    <dbl>    <dbl>
#>  1     3     36.1
#>  2     5     36.1
#>  3     7     36.1
#>  4    18     36.1
#>  5     1     36.1
#>  6    61     36.1
#>  7    60     36.1
#>  8     9     36.1
#>  9    52     36.1
#> 10    60     36.1
#> # … with 154 more rows
```
…
What is the mean age of bear attack victims **by gender**?

--
.leftcol[

```r
bears %>%
    filter(!is.na(age)) %>%
*   group_by(gender) %>%
    mutate(mean_age = mean(age)) %>%
    select(age, mean_age)
```

```
#> # A tibble: 164 x 3
#> # Groups:   gender [3]
#>    gender   age mean_age
#>    <chr>  <dbl>    <dbl>
#>  1 female     3     31.2
#>  2 male       5     38.2
#>  3 male       7     38.2
#>  4 male      18     38.2
#>  5 <NA>       1      1  
#>  6 male      61     38.2
#>  7 male      60     38.2
#>  8 female     9     31.2
#>  9 male      52     38.2
#> 10 male      60     38.2
#> # … with 154 more rows
```
…
---

# Use `ifelse()` for conditionals

```r
birds %>%
    mutate(speciesUnknown = ifelse(
*     str_detect(str_to_lower(species), "unknown"), 1, 0)) %>%
    select(species, speciesUnknown)
```

```
#> # A tibble: 56,978 x 2
#>    species              speciesUnknown
#>    <chr>                         <dbl>
#>  1 Unknown bird - large              1
#>  2 Owls                              0
#>  3 Short-eared owl                   0
#>  4 Southern lapwing                  0
#>  5 Lesser scaup                      0
#>  6 Unknown bird                      1
#>  7 Unknown bird - small              1
#>  8 Eastern meadowlark                0
#>  9 Red-winged blackbird              0
#> 10 Cattle egret                      0
#> # … with 56,968 more rows
```
…
Note that I had to summarize the count by both `month` and `bearType`

.code70[

```r
bears %>%
  count(month, bearType)
```
]
.code60[

```
#> # A tibble: 27 x 3
#>    month bearType     n
#>    <dbl> <chr>    <int>
#>  1     1 Brown        1
#>  2     1 Polar        2
#>  3     2 Brown        1
#>  4     3 Brown        1
#>  5     4 Black        1
#>  6     4 Brown        3
#>  7     5 Black       15
#>  8     5 Brown        2
#>  9     5 Polar        1
#> 10     6 Black       10
#> # … with 17 more rows
```
…
